{"msg":"","code":200,"data":{"banners":[{"version":0,"disable":false,"id":1,"img":"http://static.iboom.tv/static/app/img/login/LOGO.png","text":"我是一个banneer","type":"web","action":"www.baidu.com","od":1,"scene":"home"},{"version":0,"disable":false,"id":2,"img":"http://static.iboom.tv/static/img/2fb8b579a405e9265024b6201ccc27c5.jpg","text":"我是一个banneer","type":"web","action":"www.baidu.com","od":1,"scene":"home"},{"version":0,"disable":false,"id":3,"img":"http://static.iboom.tv/static/img/d76655e4e8d608983cf07bcd20cb24a9.jpg","text":"我是一个banneer","type":"web","action":"www.baidu.com","od":1,"scene":"home"}],"rooms":{"content":[{"version":0,"disable":false,"id":1,"name":"第一台娃娃机","photo":"http://static.iboom.tv/static/app/img/login/LOGO.png","ip":"192.168.0.100","introduce":"第一台娃娃机介绍","od":0,"activity":true,"activityName":"限时特购","activityImg":"http://gate.school.iboom.tv/app/static/images/icon/ic_weixin_00.png","firstCamera":"rtmp://live2.iboom.tv/AppName/Stream","secondCamera":"rtmp://live2.iboom.tv/AppName/Stream","price":19,"canUse":false},{"version":0,"disable":false,"id":2,"name":"第一台娃娃机","photo":"http://static.iboom.tv/static/app/img/login/LOGO.png","ip":"192.168.0.100","introduce":"第一台娃娃机介绍","od":0,"activity":true,"activityName":"限时特购","activityImg":"http://gate.school.iboom.tv/app/static/images/icon/ic_weixin_00.png","firstCamera":"rtmp://live2.iboom.tv/AppName/Stream","secondCamera":"rtmp://live2.iboom.tv/AppName/Stream","price":19,"canUse":false},{"version":0,"disable":false,"id":3,"name":"第一台娃娃机","photo":"http://static.iboom.tv/static/app/img/login/LOGO.png","ip":"192.168.0.100","introduce":"第一台娃娃机介绍","od":0,"activity":true,"activityName":"限时特购","activityImg":"http://gate.school.iboom.tv/app/static/images/icon/ic_weixin_00.png","firstCamera":"rtmp://live2.iboom.tv/AppName/Stream","secondCamera":"rtmp://live2.iboom.tv/AppName/Stream","price":19,"canUse":false},{"version":0,"disable":false,"id":4,"name":"第一台娃娃机","photo":"http://static.iboom.tv/static/app/img/login/LOGO.png","ip":"192.168.0.100","introduce":"第一台娃娃机介绍","od":0,"activity":true,"activityName":"限时特购","activityImg":"http://gate.school.iboom.tv/app/static/images/icon/ic_weixin_00.png","firstCamera":"rtmp://live2.iboom.tv/AppName/Stream","secondCamera":"rtmp://live2.iboom.tv/AppName/Stream","price":19,"canUse":false},{"version":0,"disable":false,"id":5,"name":"第一台娃娃机","photo":"http://static.iboom.tv/static/app/img/login/LOGO.png","ip":"192.168.0.100","introduce":"第一台娃娃机介绍","od":0,"activity":true,"activityName":"限时特购","activityImg":"http://gate.school.iboom.tv/app/static/images/icon/ic_weixin_00.png","firstCamera":"rtmp://live2.iboom.tv/AppName/Stream","secondCamera":"rtmp://live2.iboom.tv/AppName/Stream","price":19,"canUse":false},{"version":0,"disable":false,"id":6,"name":"第一台娃娃机","photo":"http://static.iboom.tv/static/app/img/login/LOGO.png","ip":"192.168.0.100","introduce":"第一台娃娃机介绍","od":0,"activity":true,"activityName":"限时特购","activityImg":"http://gate.school.iboom.tv/app/static/images/icon/ic_weixin_00.png","firstCamera":"rtmp://live2.iboom.tv/AppName/Stream","secondCamera":"rtmp://live2.iboom.tv/AppName/Stream","price":19,"canUse":false},{"version":0,"disable":false,"id":7,"name":"第一台娃娃机","photo":"http://static.iboom.tv/static/app/img/login/LOGO.png","ip":"192.168.0.100","introduce":"第一台娃娃机介绍","od":0,"activity":true,"activityName":"限时特购","activityImg":"http://gate.school.iboom.tv/app/static/images/icon/ic_weixin_00.png","firstCamera":"rtmp://live2.iboom.tv/AppName/Stream","secondCamera":"rtmp://live2.iboom.tv/AppName/Stream","price":19,"canUse":false},{"version":0,"disable":false,"id":8,"name":"第一台娃娃机","photo":"http://static.iboom.tv/static/app/img/login/LOGO.png","ip":"192.168.0.100","introduce":"第一台娃娃机介绍","od":0,"activity":true,"activityName":"限时特购","activityImg":"http://gate.school.iboom.tv/app/static/images/icon/ic_weixin_00.png","firstCamera":"rtmp://live2.iboom.tv/AppName/Stream","secondCamera":"rtmp://live2.iboom.tv/AppName/Stream","price":19,"canUse":false},{"version":0,"disable":false,"id":9,"name":"第一台娃娃机","photo":"http://static.iboom.tv/static/app/img/login/LOGO.png","ip":"192.168.0.100","introduce":"第一台娃娃机介绍","od":0,"activity":true,"activityName":"限时特购","activityImg":"http://gate.school.iboom.tv/app/static/images/icon/ic_weixin_00.png","firstCamera":"rtmp://live2.iboom.tv/AppName/Stream","secondCamera":"rtmp://live2.iboom.tv/AppName/Stream","price":19,"canUse":false},{"version":0,"disable":false,"id":10,"name":"第一台娃娃机","photo":"http://static.iboom.tv/static/app/img/login/LOGO.png","ip":"192.168.0.100","introduce":"第一台娃娃机介绍","od":0,"activity":true,"activityName":"限时特购","activityImg":"http://gate.school.iboom.tv/app/static/images/icon/ic_weixin_00.png","firstCamera":"rtmp://live2.iboom.tv/AppName/Stream","secondCamera":"rtmp://live2.iboom.tv/AppName/Stream","price":19,"canUse":false},{"version":0,"disable":false,"id":11,"name":"第一台娃娃机","photo":"http://static.iboom.tv/static/app/img/login/LOGO.png","ip":"192.168.0.100","introduce":"第一台娃娃机介绍","od":0,"activity":true,"activityName":"限时特购","activityImg":"http://gate.school.iboom.tv/app/static/images/icon/ic_weixin_00.png","firstCamera":"rtmp://live2.iboom.tv/AppName/Stream","secondCamera":"rtmp://live2.iboom.tv/AppName/Stream","price":19,"canUse":false},{"version":0,"disable":false,"id":12,"name":"第一台娃娃机","photo":"http://static.iboom.tv/static/app/img/login/LOGO.png","ip":"192.168.0.100","introduce":"第一台娃娃机介绍","od":0,"activity":true,"activityName":"限时特购","activityImg":"http://gate.school.iboom.tv/app/static/images/icon/ic_weixin_00.png","firstCamera":"rtmp://live2.iboom.tv/AppName/Stream","secondCamera":"rtmp://live2.iboom.tv/AppName/Stream","price":19,"canUse":false},{"version":0,"disable":false,"id":13,"name":"第一台娃娃机","photo":"http://static.iboom.tv/static/app/img/login/LOGO.png","ip":"192.168.0.100","introduce":"第一台娃娃机介绍","od":0,"activity":true,"activityName":"限时特购","activityImg":"http://gate.school.iboom.tv/app/static/images/icon/ic_weixin_00.png","firstCamera":"rtmp://live2.iboom.tv/AppName/Stream","secondCamera":"rtmp://live2.iboom.tv/AppName/Stream","price":19,"canUse":false},{"version":0,"disable":false,"id":14,"name":"第一台娃娃机","photo":"http://static.iboom.tv/static/app/img/login/LOGO.png","ip":"192.168.0.100","introduce":"第一台娃娃机介绍","od":0,"activity":true,"activityName":"限时特购","activityImg":"http://gate.school.iboom.tv/app/static/images/icon/ic_weixin_00.png","firstCamera":"rtmp://live2.iboom.tv/AppName/Stream","secondCamera":"rtmp://live2.iboom.tv/AppName/Stream","price":19,"canUse":false},{"version":0,"disable":false,"id":15,"name":"第一台娃娃机","photo":"http://static.iboom.tv/static/app/img/login/LOGO.png","ip":"192.168.0.100","introduce":"第一台娃娃机介绍","od":0,"activity":true,"activityName":"限时特购","activityImg":"http://gate.school.iboom.tv/app/static/images/icon/ic_weixin_00.png","firstCamera":"rtmp://live2.iboom.tv/AppName/Stream","secondCamera":"rtmp://live2.iboom.tv/AppName/Stream","price":19,"canUse":false},{"version":0,"disable":false,"id":16,"name":"第一台娃娃机","photo":"http://static.iboom.tv/static/app/img/login/LOGO.png","ip":"192.168.0.100","introduce":"第一台娃娃机介绍","od":0,"activity":true,"activityName":"限时特购","activityImg":"http://gate.school.iboom.tv/app/static/images/icon/ic_weixin_00.png","firstCamera":"rtmp://live2.iboom.tv/AppName/Stream","secondCamera":"rtmp://live2.iboom.tv/AppName/Stream","price":19,"canUse":false},{"version":0,"disable":false,"id":17,"name":"第一台娃娃机","photo":"http://static.iboom.tv/static/app/img/login/LOGO.png","ip":"192.168.0.100","introduce":"第一台娃娃机介绍","od":0,"activity":true,"activityName":"限时特购","activityImg":"http://gate.school.iboom.tv/app/static/images/icon/ic_weixin_00.png","firstCamera":"rtmp://live2.iboom.tv/AppName/Stream","secondCamera":"rtmp://live2.iboom.tv/AppName/Stream","price":19,"canUse":false},{"version":0,"disable":false,"id":18,"name":"第一台娃娃机","photo":"http://static.iboom.tv/static/app/img/login/LOGO.png","ip":"192.168.0.100","introduce":"第一台娃娃机介绍","od":0,"activity":true,"activityName":"限时特购","activityImg":"http://gate.school.iboom.tv/app/static/images/icon/ic_weixin_00.png","firstCamera":"rtmp://live2.iboom.tv/AppName/Stream","secondCamera":"rtmp://live2.iboom.tv/AppName/Stream","price":19,"canUse":false},{"version":0,"disable":false,"id":19,"name":"第一台娃娃机","photo":"http://static.iboom.tv/static/app/img/login/LOGO.png","ip":"192.168.0.100","introduce":"第一台娃娃机介绍","od":0,"activity":true,"activityName":"限时特购","activityImg":"http://gate.school.iboom.tv/app/static/images/icon/ic_weixin_00.png","firstCamera":"rtmp://live2.iboom.tv/AppName/Stream","secondCamera":"rtmp://live2.iboom.tv/AppName/Stream","price":19,"canUse":false},{"version":0,"disable":false,"id":20,"name":"第一台娃娃机","photo":"http://static.iboom.tv/static/app/img/login/LOGO.png","ip":"192.168.0.100","introduce":"第一台娃娃机介绍","od":0,"activity":true,"activityName":"限时特购","activityImg":"http://gate.school.iboom.tv/app/static/images/icon/ic_weixin_00.png","firstCamera":"rtmp://live2.iboom.tv/AppName/Stream","secondCamera":"rtmp://live2.iboom.tv/AppName/Stream","price":19,"canUse":false}],"totalElements":22,"totalPages":2,"last":false,"number":0,"size":20,"sort":null,"first":true,"numberOfElements":20}}}